<?xml version="1.0" encoding="UTF-8" standalone="no"?>
<svg
   xmlns:dc="http://purl.org/dc/elements/1.1/"
   xmlns:cc="http://creativecommons.org/ns#"
   xmlns:rdf="http://www.w3.org/1999/02/22-rdf-syntax-ns#"
   xmlns:svg="http://www.w3.org/2000/svg"
   xmlns="http://www.w3.org/2000/svg"
   xmlns:sodipodi="http://sodipodi.sourceforge.net/DTD/sodipodi-0.dtd"
   xmlns:inkscape="http://www.inkscape.org/namespaces/inkscape"
   version="1.1"
   id="svg148"
   width="339.18811"
   height="546.3501"
   viewBox="0 0 339.18811 546.3501"
   sodipodi:docname="ed_logo.svg"
   inkscape:version="1.0.2 (e86c870879, 2021-01-15, custom)">
  <metadata
     id="metadata154">
    <rdf:RDF>
      <cc:Work
         rdf:about="">
        <dc:format>image/svg+xml</dc:format>
        <dc:type
           rdf:resource="http://purl.org/dc/dcmitype/StillImage" />
        <dc:title></dc:title>
      </cc:Work>
    </rdf:RDF>
  </metadata>
  <defs
     id="defs152" />
  <sodipodi:namedview
     pagecolor="#ffffff"
     bordercolor="#666666"
     borderopacity="1"
     objecttolerance="10"
     gridtolerance="10"
     guidetolerance="10"
     inkscape:pageopacity="0"
     inkscape:pageshadow="2"
     inkscape:window-width="1920"
     inkscape:window-height="1057"
     id="namedview150"
     showgrid="false"
     inkscape:zoom="1.34375"
     inkscape:cx="157.54053"
     inkscape:cy="278.73093"
     inkscape:window-x="0"
     inkscape:window-y="0"
     inkscape:window-maximized="1"
     inkscape:current-layer="g156" />
  <g
     inkscape:groupmode="layer"
     inkscape:label="Image"
     id="g156"
     transform="translate(-162.45947,-41.26907)">
    <path
       style="fill:#173155;stroke:none"
       d="m 317.89244,193.61918 c 7.625,-6.13 12.922,-14.803 18.05,-23 2.123,-3.394 4.199,-9.758 8.083,-11.397 5.808,-2.449 14.639,-0.266 20.867,-0.692 16.75,-1.149 38.424,-6.626 49.671,-19.926 20.916,-24.7312 10.63,-62.517794 -14.671,-78.970394 -33.85,-22.0113 -81.143,-23.40535 -118,-8.6149 -19.127,7.6756 -38.874,22.8263 -41.711,44.6003 -3.426,26.301694 18.671,50.086994 42.711,56.844994 6.642,1.867 23.871,0.499 28.436,4.758 6.679,6.231 6.558,27.823 6.564,36.397 m 30,-149.999994 -1,1 1,-1 m -73,12 -1,1 1,-1 m 0,5 -1,1 1,-1 m 86,3 -1,1 1,-1 m -0.941,3.6034 c 4.725,-1.898 9.777,0.3633 10.713,5.4012 3.01,16.2103 0.229,35.493594 0.228,51.995394 0,5.5031 0.708,13.544 -6.043,15.471 -8.099,2.312 -8.954,-5.785 -8.957,-11.471 V 83.619186 c 0,-4.9873 -1.779,-14.0521 4.059,-16.3966 m -31.059,63.396594 -7,6 -16,5 -14,-6 -6,-6 c -0.501,-17.1326 -6.911,-33.475394 2.532,-49.999994 11.64,-20.3668 36.003,-12.1359 41.547,8 4.188,15.210604 -0.645,28.161594 -1.079,42.999994 m 77,-61.999994 -1,1 1,-1 m 4,0 -1,1 1,-1 m -2,1 -1,1 1,-1 m 7,4 -2,2 2,-2 m -85,1 -1,1 1,-1 m 83,2 -1,1 1,-1 m -125,1 -1,1 1,-1 m -41,3 -1,1 1,-1 m 58.093,1.5872 c -14.07,3.9912 -13.383,50.876794 5.867,44.898194 11.691,-3.631 8.998,-27.717894 6.244,-36.485394 -1.677,-5.3359 -5.997,-10.1472 -12.111,-8.4128 m -55.093,1.4128 -1,1 1,-1 m 55,0 -1,1 1,-1 m -2,2 -1,1 1,-1 m -57,32.999994 -1,1 1,-1 m 10,10 -1,1 1,-1 m -2,2 -1,1 1,-1 m 2,2 -1,1 1,-1 m 33,1 -1,1 1,-1 m 39,0 -1,1 1,-1 m -69,2 -1,1 1,-1 m 38,5 -1,1 1,-1 m 68,1 -1,1 1,-1 m 42,1 -1,1 1,-1 m -2,1 -1,1 1,-1 m -135,1 -1,1 1,-1 m 39,7 -1,1 1,-1 m 63,0 -1,1 1,-1 m -43,26 -1,1 1,-1 m -157,410 108,-5 c -0.002,-3.653 0.949,-13.391 -2.603,-15.651 -5.648,-3.595 -23.816,-0.411 -30.397,0.365 -19.787,2.335 -41.072,1.875 -61,2.286 l -3,-119 h 79 l 1,-22 c -19.698,0 -39.276,-1 -59,-1 -4.932,0 -16.655,2.138 -20.397,-1.603 -5.25,-5.25 -1.081,-24.187 -2.027,-31.397 -5.516,-42.004 -0.381,-86.838 31.294,-117.675 31.194,-30.37 73.581,-41.149 116.13,-39.286 9.506,0.417 18.607,3.194 28,3.961 l 6.039,152 2.961,115 c 13.055,-0.269 26.65,-4.534 39,-8.495 33.332,-10.691 68.425,-28.463 85.691,-60.505 11.469,-21.285 12.004,-47.551 10.399,-71 -1.987,-29.002 -6.573,-56.932 -22.526,-82 -46.161,-72.536 -155.552,-90.699 -231.564,-60.2 -32.534,13.054 -58.511,37.719 -73.742,69.2 -16.067,33.211 -9.258,77.111 -9.258,113 0,59.454 3.325,119.764 8,179 m 211,-102 -2.985,-124 -3.015,-116 c 63.05,9.277 96.515,77.847 99.039,135 0.899,20.349 -1.042,39.927 -11.467,58 -16.742,29.023 -50.6,40.607 -81.572,47 z"
       id="path162" />
  </g>
</svg>
