<?xml version="1.0" encoding="UTF-8" standalone="no"?>
<!-- Created with Inkscape (http://www.inkscape.org/) -->

<svg
   width="89.743515mm"
   height="144.55513mm"
   viewBox="0 0 89.743515 144.55513"
   version="1.1"
   id="svg5"
   inkscape:version="1.1 (c68e22c387, 2021-05-23)"
   sodipodi:docname="site-logo.svg"
   xmlns:inkscape="http://www.inkscape.org/namespaces/inkscape"
   xmlns:sodipodi="http://sodipodi.sourceforge.net/DTD/sodipodi-0.dtd"
   xmlns="http://www.w3.org/2000/svg"
   xmlns:svg="http://www.w3.org/2000/svg">
  <sodipodi:namedview
     id="namedview7"
     pagecolor="#ffffff"
     bordercolor="#666666"
     borderopacity="1.0"
     inkscape:pageshadow="2"
     inkscape:pageopacity="0.0"
     inkscape:pagecheckerboard="0"
     inkscape:document-units="mm"
     showgrid="false"
     inkscape:zoom="1.9552971"
     inkscape:cx="96.404788"
     inkscape:cy="212.24396"
     inkscape:window-width="1920"
     inkscape:window-height="1011"
     inkscape:window-x="0"
     inkscape:window-y="0"
     inkscape:window-maximized="1"
     inkscape:current-layer="layer1" />
  <defs
     id="defs2" />
  <g
     inkscape:label="Livello 1"
     inkscape:groupmode="layer"
     id="layer1"
     transform="translate(-60.905768,-86.373481)">
    <path
       style="fill:#1c8386;fill-opacity:1;stroke:none;stroke-width:0.264583"
       d="m 102.03076,126.68278 c 2.01745,-1.62189 3.41895,-3.91662 4.77573,-6.08541 0.56171,-0.898 1.11099,-2.58181 2.13863,-3.01546 1.5367,-0.64797 3.87323,-0.0704 5.52106,-0.18309 4.43177,-0.30401 10.16635,-1.75313 13.14212,-5.27209 5.53402,-6.54346 2.81252,-16.54117 -3.88171,-20.89425 -8.95614,-5.82382 -21.46908,-6.19267 -31.220832,-2.27936 -5.06068,2.03084 -10.28541,6.03946 -11.03603,11.8005 -0.90647,6.95899 4.94003,13.25218 11.30061,15.04024 1.75737,0.49397 6.31587,0.13202 7.523702,1.25888 1.76715,1.64862 1.73513,7.3615 1.73672,9.63004 m 7.9375,-39.6875 -0.26458,0.26459 0.26458,-0.26459 m -19.314582,3.175 -0.26459,0.26459 0.26459,-0.26459 m 0,1.32292 -0.26459,0.26458 0.26459,-0.26458 m 22.754162,0.79375 -0.26458,0.26458 0.26458,-0.26458 m -0.24897,0.9534 c 1.25016,-0.50218 2.58683,0.0961 2.83448,1.42907 0.7964,4.28897 0.0606,9.39101 0.0603,13.75711 0,1.45603 0.18733,3.58352 -1.59887,4.09337 -2.14287,0.61172 -2.36908,-1.53061 -2.36988,-3.03503 V 97.57862 c 0,-1.31956 -0.47069,-3.71795 1.07395,-4.33827 m -8.21769,16.77368 -1.85209,1.5875 -4.233332,1.32292 -3.70417,-1.5875 -1.5875,-1.5875 c -0.13255,-4.533 -1.82853,-8.85703 0.66993,-13.22917 3.07975,-5.38871 9.525792,-3.21095 10.992642,2.11667 1.10808,4.02447 -0.17065,7.45109 -0.28548,11.37708 m 20.37291,-16.40416 -0.26458,0.26458 0.26458,-0.26458 m 1.05834,0 -0.26459,0.26458 0.26459,-0.26458 m -0.52917,0.26458 -0.26458,0.26458 0.26458,-0.26458 m 1.85208,1.05833 -0.52916,0.52917 0.52916,-0.52917 m -22.48958,0.26459 -0.26458,0.26458 0.26458,-0.26458 m 21.96042,0.52916 -0.26459,0.26459 0.26459,-0.26459 m -33.072922,0.26459 -0.26458,0.26458 0.26458,-0.26458 m -10.84792,0.79375 -0.26458,0.26458 0.26458,-0.26458 m 15.37044,0.41994 c -3.72268,1.05601 -3.54092,13.46116 1.552312,11.87932 3.09325,-0.9607 2.38072,-7.33369 1.65206,-9.65343 -0.4437,-1.41179 -1.5867,-2.68478 -3.204372,-2.22589 m -14.57669,0.37381 -0.26458,0.26458 0.26458,-0.26458 m 14.55209,0 -0.26459,0.26458 0.26459,-0.26458 m -0.52917,0.52916 -0.26458,0.26459 0.26458,-0.26459 m -15.08125,8.73125 -0.26458,0.26459 0.26458,-0.26459 m 2.64583,2.64584 -0.26458,0.26458 0.26458,-0.26458 m -0.52916,0.52916 -0.26459,0.26459 0.26459,-0.26459 m 0.52916,0.52917 -0.26458,0.26458 0.26458,-0.26458 m 8.73125,0.26458 -0.26458,0.26459 0.26458,-0.26459 m 10.318752,0 -0.26458,0.26459 0.26458,-0.26459 m -18.256252,0.52917 -0.26458,0.26458 0.26458,-0.26458 m 10.05417,1.32292 -0.26458,0.26458 0.26458,-0.26458 m 17.991672,0.26458 -0.26459,0.26458 0.26459,-0.26458 m 11.1125,0.26458 -0.26459,0.26459 0.26459,-0.26459 m -0.52917,0.26459 -0.26458,0.26458 0.26458,-0.26458 m -35.718752,0.26458 -0.26458,0.26458 0.26458,-0.26458 m 10.31875,1.85208 -0.26458,0.26459 0.26458,-0.26459 m 16.668752,0 -0.26458,0.26459 0.26458,-0.26459 m -11.37708,6.87917 -0.26459,0.26458 0.26459,-0.26458 m -41.539592,108.47916 28.575,-1.32291 c -5.3e-4,-0.96653 0.25109,-3.54304 -0.68871,-4.141 -1.49436,-0.95117 -6.30131,-0.10874 -8.04254,0.0966 -5.23531,0.6178 -10.86696,0.49609 -16.13958,0.60483 l -0.79375,-31.48541 h 20.90208 l 0.26459,-5.82084 c -5.21177,0 -10.39178,-0.26458 -15.61042,-0.26458 -1.30492,0 -4.40663,0.56568 -5.39671,-0.42413 -1.38906,-1.38908 -0.28601,-6.39949 -0.53631,-8.30714 -1.45944,-11.11356 -0.1008,-22.97589 8.27987,-31.13484 8.25342,-8.0354 19.46831,-10.88734 30.726072,-10.39442 2.51513,0.11033 4.9231,0.84508 7.40833,1.04801 l 1.59782,40.21667 0.78343,30.42708 c 3.45414,-0.0712 7.05115,-1.19962 10.31875,-2.24764 8.81909,-2.82866 18.10412,-7.53083 22.67241,-16.00861 3.03451,-5.63165 3.17606,-12.5812 2.7514,-18.78541 -0.52572,-7.67345 -1.7391,-15.06326 -5.96,-21.69584 -12.21343,-19.19181 -41.15647,-23.99744 -61.267982,-15.92791 -8.60795,3.45387 -15.48103,9.97981 -19.5109,18.30916 -4.25106,8.78708 -2.44951,20.40229 -2.44951,29.89792 0,15.73053 0.87974,31.68755 2.11666,47.36041 m 55.827092,-26.9875 -0.78978,-32.80833 -0.79772,-30.69166 c 16.68198,2.45454 25.53626,20.59701 26.20407,35.71875 0.23786,5.384 -0.2757,10.56401 -3.03398,15.34583 -4.42966,7.679 -13.38792,10.74393 -21.58259,12.43541 z"
       id="path162" />
  </g>
</svg>
